p,superadmin,/api/v2/partner/new,POST
p,operator,/api/v2/staff/new,POST
p,admin,/api/v2/drivers/filter,POST
p,owner,/api/v2/drivers/filter,POST

p,admin,/api/v2/owners,GET
p,admin,/api/v2/owners/*,GET

